<svg xmlns="http://www.w3.org/2000/svg" width="800" height="800" viewBox="0 0 800 800">
  <defs>
    <style>
      .cls-1 {
        fill: #1db7b3;
      }

      .cls-10, .cls-2, .cls-3 {
        fill: #eaeaea;
      }

      .cls-2 {
        opacity: 0.46;
      }

      .cls-3 {
        opacity: 0.44;
      }

      .cls-4 {
        fill: #f2f2f2;
      }

      .cls-5 {
        fill: #2a2e3e;
      }

      .cls-6 {
        fill: #fedc80;
      }

      .cls-7 {
        fill: #eac15e;
      }

      .cls-8 {
        fill: #ee293e;
      }

      .cls-9 {
        fill: #d6d6d6;
      }

      .cls-11 {
        fill: #8d95b1;
      }

      .cls-12 {
        fill: #3a4051;
      }

      .cls-13 {
        fill: #f5bc49;
      }

      .cls-14 {
        fill: #33343c;
      }

      .cls-15 {
        fill: #ccc;
      }

      .cls-16 {
        fill: #495a61;
      }

      .cls-17 {
        fill: #db1f28;
      }
    </style>
  </defs>
  <title>2</title>
  <g id="Livello_2" data-name="Livello 2">
    <rect class="cls-1" width="800" height="800"/>
  </g>
  <g id="Livello_1" data-name="Livello 1">
    <g>
      <g>
        <circle class="cls-2" cx="631.66" cy="400.8" r="34.58" transform="translate(33.4 849.93) rotate(-69.29)"/>
        <circle class="cls-3" cx="631.66" cy="400.8" r="23.78" transform="translate(33.4 849.93) rotate(-69.29)"/>
        <circle class="cls-4" cx="637.04" cy="411.25" r="8.81" transform="translate(27.1 861.72) rotate(-69.29)"/>
        <path class="cls-5" d="M673,416.43a44.21,44.21,0,1,0-61.07,23.93L601.15,468.9l-1-.38a4,4,0,0,0-5.19,2.34l-25.42,67.25a4,4,0,0,0,2.34,5.19l10.36,3.92a4,4,0,0,0,5.19-2.34l25.42-67.25a4,4,0,0,0-2.34-5.19l-1-.38,10.79-28.54A44.21,44.21,0,0,0,673,416.43Zm-73.69-27.86a34.58,34.58,0,1,1,20.12,44.57A34.58,34.58,0,0,1,599.32,388.57Z"/>
      </g>
      <g>
        <path class="cls-6" d="M236,319.86l-11.4-8.08-52.48,12.9c4.9,19.13,30.62,119.77,29.48,120.05l174.65-42.93L349.23,292Z"/>
        <polygon class="cls-7" points="182.81 322.05 181.4 310.39 352.15 268.42 376.21 401.81 349.23 292.02 235.96 319.86 224.56 311.78 182.81 322.05"/>
        <polygon class="cls-4" points="179.2 323.7 177.23 315.71 338.59 276.05 342.9 293.58 235.96 319.86 224.56 311.78 179.2 323.7"/>
      </g>
      <g>
        <polygon class="cls-4" points="611.43 321.32 602.95 309.54 588.45 308.88 579.97 297.1 565.47 296.44 556.99 284.66 542.49 283.99 534.01 272.21 519.51 271.55 511.03 259.77 496.53 259.11 488.05 247.33 485.04 252.88 450.72 316.27 400.97 408.13 538.85 482.79 588.59 390.93 622.92 327.54 625.92 321.99 611.43 321.32"/>
        <rect class="cls-8" x="475.97" y="299.44" width="136.65" height="17.33" rx="2.72" ry="2.72" transform="translate(212.38 -222.01) rotate(28.44)"/>
        <rect class="cls-9" x="462.56" y="296.25" width="39.76" height="48.68" rx="2.6" ry="2.6" transform="translate(210.87 -191.05) rotate(28.44)"/>
        <rect class="cls-9" x="431.09" y="341.54" width="39.76" height="74.31" rx="3.21" ry="3.21" transform="translate(234.74 -169.06) rotate(28.44)"/>
        <rect class="cls-9" x="507.89" y="332.28" width="90.95" height="14.11" rx="2.04" ry="2.04" transform="translate(228.35 -222.56) rotate(28.44)"/>
        <rect class="cls-9" x="500.38" y="348.94" width="90.95" height="8.54" transform="translate(234.05 -217.31) rotate(28.44)"/>
        <rect class="cls-9" x="494.28" y="362.62" width="90.95" height="3.71" rx="1.1" ry="1.1" transform="translate(238.68 -213.04) rotate(28.44)"/>
        <rect class="cls-9" x="491.09" y="368.5" width="90.95" height="3.71" rx="1.1" ry="1.1" transform="translate(241.1 -210.82) rotate(28.44)"/>
        <rect class="cls-9" x="487.91" y="374.38" width="90.95" height="3.71" rx="1.1" ry="1.1" transform="translate(243.51 -208.59) rotate(28.44)"/>
        <rect class="cls-9" x="484.73" y="380.26" width="90.95" height="3.71" rx="1.1" ry="1.1" transform="translate(245.93 -206.37) rotate(28.44)"/>
        <rect class="cls-9" x="481.55" y="386.13" width="90.95" height="3.71" rx="1.1" ry="1.1" transform="translate(248.34 -204.15) rotate(28.44)"/>
        <rect class="cls-9" x="478.36" y="392.01" width="90.95" height="3.71" rx="1.1" ry="1.1" transform="translate(250.76 -201.92) rotate(28.44)"/>
        <rect class="cls-9" x="475.18" y="397.89" width="90.95" height="3.71" rx="1.1" ry="1.1" transform="translate(253.17 -199.7) rotate(28.44)"/>
        <rect class="cls-9" x="472" y="403.77" width="90.95" height="3.71" rx="1.1" ry="1.1" transform="translate(255.58 -197.47) rotate(28.44)"/>
        <rect class="cls-9" x="466.89" y="406.47" width="37.85" height="3.71" rx="0.71" ry="0.71" transform="translate(253.05 -182.07) rotate(28.44)"/>
        <rect class="cls-9" x="458.74" y="428.26" width="90.95" height="3.71" rx="1.1" ry="1.1" transform="translate(265.65 -188.2) rotate(28.44)"/>
        <rect class="cls-9" x="455.55" y="434.13" width="90.95" height="3.71" rx="1.1" ry="1.1" transform="translate(268.06 -185.98) rotate(28.44)"/>
        <rect class="cls-9" x="452.37" y="440.01" width="90.95" height="3.71" rx="1.1" ry="1.1" transform="translate(270.48 -183.75) rotate(28.44)"/>
      </g>
      <g>
        <polygon class="cls-10" points="535.17 536.83 613.04 582.26 691.8 538.37 535.17 536.83"/>
        <polygon class="cls-11" points="535.17 536.83 613.93 492.94 691.8 538.37 535.17 536.83"/>
        <g>
          <rect class="cls-11" x="546.34" y="554.29" width="124.6" height="4.75" rx="2.2" ry="2.2" transform="translate(5.53 -5.99) rotate(0.57)"/>
          <rect class="cls-11" x="546.26" y="561.89" width="124.6" height="4.75" rx="2.2" ry="2.2" transform="translate(5.61 -5.99) rotate(0.57)"/>
          <rect class="cls-11" x="546.12" y="576.47" width="124.6" height="4.75" rx="2.2" ry="2.2" transform="translate(5.75 -5.99) rotate(0.57)"/>
        </g>
        <polygon class="cls-5" points="558.47 537.06 535.17 536.83 534.73 581.49 534.29 626.15 557.58 626.38 613.04 582.26 558.47 537.06"/>
        <polygon class="cls-5" points="668.5 538.14 691.8 538.37 691.36 583.04 690.91 627.7 667.62 627.47 613.04 582.26 668.5 538.14"/>
        <polygon class="cls-12" points="557.58 626.38 667.62 627.47 613.04 582.26 557.58 626.38"/>
      </g>
      <g>
        <path class="cls-13" d="M127.35,377.06a49.76,49.76,0,0,0-1.72,70.36c13.3,14,46,16.13,60.82,24.7l15.63,16.39,33-31.48-15.63-16.39c-8.72-13.12-8.48-48-21.78-61.92A49.74,49.74,0,0,0,127.35,377.06Z"/>
        <path class="cls-14" d="M175.36,396.66a1.41,1.41,0,0,0-.34-.45.38.38,0,0,0-.52,0c-1,.74-.66,2.67-.66,3.76a37.42,37.42,0,0,0,.21,3.92,7.35,7.35,0,0,0-3,0,15.77,15.77,0,0,0-3.67.56.26.26,0,0,0-.44.11,8,8,0,0,0-.2,2.53,14.66,14.66,0,0,0,.25,2.63,12.42,12.42,0,0,0-2.66-.09,19.49,19.49,0,0,0-3.88.33.44.44,0,0,0-.31.35.41.41,0,0,0-.14.12,6.53,6.53,0,0,0-.63,3.18l-.09,1.71a17.48,17.48,0,0,1,0,1.81,8.55,8.55,0,0,0-2.61-.08,8.67,8.67,0,0,0-3.73.75.31.31,0,0,0-.17.3.45.45,0,0,0-.24.09c-.92.77-1,2-1.29,3.09a15.32,15.32,0,0,0-.6,3.87,19.63,19.63,0,0,0-6.59,1.2l-.12-.09-1,1.39L200.63,468l1-1.38L145.13,427a17.38,17.38,0,0,0,5.93-1.1.53.53,0,0,0,.73-.21,13.21,13.21,0,0,0,1.26-4,5.78,5.78,0,0,0,.24-3.3,9.52,9.52,0,0,0,3.4.24A6.29,6.29,0,0,0,160,418a.4.4,0,0,0,.06-.07c.77-.55.65-2.2.72-3a11.35,11.35,0,0,0,.05-4.07,23.08,23.08,0,0,0,3.44.07,9.93,9.93,0,0,0,3.5-.49.25.25,0,0,0,.11-.38.41.41,0,0,0,0-.06,10.48,10.48,0,0,0,0-2.57,10.89,10.89,0,0,0-.27-2.16,16.61,16.61,0,0,0,3.33.13c1.08,0,2.53.13,3.43-.59a.38.38,0,0,0,.43-.28,37.17,37.17,0,0,0,.55-4.49c0-.2,0-.43.06-.67l36.37,57.51,1.43-.91L175.7,396.44Z"/>
        <ellipse class="cls-15" cx="228.14" cy="483.84" rx="12.87" ry="3.13" transform="translate(-270.84 291.06) rotate(-43.63)"/>
        <path class="cls-16" d="M219.41,450.2,196,472.51c-3.59,3.43-4.3,8.5-1.6,11.33l7.91,8.3c2.34,2.45,9.6,5.81,13.86,4.49l25.89-24.68c1.62-4.28-1-12.06-3.35-14.51l-7.91-8.3C228.1,446.31,223,446.77,219.41,450.2Z"/>
        <rect class="cls-15" x="184.61" y="458.45" width="51.94" height="11.87" rx="2.09" ry="2.09" transform="translate(-262.26 273.57) rotate(-43.63)"/>
      </g>
      <g>
        <circle class="cls-5" cx="191.98" cy="554.63" r="82.17"/>
        <circle class="cls-10" cx="191.98" cy="554.63" r="69.77"/>
        <g>
          <path class="cls-5" d="M192,500.66h0a1.87,1.87,0,0,0,1.86-1.86v-7.65a1.87,1.87,0,0,0-1.86-1.86h0a1.87,1.87,0,0,0-1.86,1.86v7.65A1.87,1.87,0,0,0,192,500.66Z"/>
          <path class="cls-5" d="M210.44,503.91h0a1.87,1.87,0,0,0,2.38-1.11l2.62-7.19a1.87,1.87,0,0,0-1.11-2.38h0a1.87,1.87,0,0,0-2.38,1.11l-2.62,7.19A1.87,1.87,0,0,0,210.44,503.91Z"/>
          <path class="cls-5" d="M226.67,513.29h0a1.87,1.87,0,0,0,2.62-.23l4.92-5.86a1.87,1.87,0,0,0-.23-2.62h0a1.87,1.87,0,0,0-2.62.23l-4.92,5.86A1.87,1.87,0,0,0,226.67,513.29Z"/>
          <path class="cls-5" d="M238.72,527.65h0a1.87,1.87,0,0,0,2.54.68l6.62-3.82a1.87,1.87,0,0,0,.68-2.54h0a1.87,1.87,0,0,0-2.54-.68l-6.62,3.82A1.87,1.87,0,0,0,238.72,527.65Z"/>
          <path class="cls-5" d="M245.13,545.26h0a1.87,1.87,0,0,0,2.16,1.51l7.53-1.33a1.87,1.87,0,0,0,1.51-2.16h0a1.87,1.87,0,0,0-2.16-1.51l-7.53,1.33A1.87,1.87,0,0,0,245.13,545.26Z"/>
          <path class="cls-5" d="M245.13,564h0a1.87,1.87,0,0,0,1.51,2.16l7.53,1.33a1.87,1.87,0,0,0,2.16-1.51h0a1.87,1.87,0,0,0-1.51-2.16l-7.53-1.33A1.87,1.87,0,0,0,245.13,564Z"/>
          <path class="cls-5" d="M238.72,581.62h0a1.87,1.87,0,0,0,.68,2.54L246,588a1.87,1.87,0,0,0,2.54-.68h0a1.87,1.87,0,0,0-.68-2.54l-6.62-3.82A1.87,1.87,0,0,0,238.72,581.62Z"/>
          <path class="cls-5" d="M226.67,596h0a1.87,1.87,0,0,0-.23,2.62l4.92,5.86a1.87,1.87,0,0,0,2.62.23h0a1.87,1.87,0,0,0,.23-2.62l-4.92-5.86A1.87,1.87,0,0,0,226.67,596Z"/>
          <path class="cls-5" d="M210.44,605.35h0a1.87,1.87,0,0,0-1.11,2.38l2.62,7.19a1.87,1.87,0,0,0,2.38,1.11h0a1.87,1.87,0,0,0,1.11-2.38l-2.62-7.19A1.87,1.87,0,0,0,210.44,605.35Z"/>
          <path class="cls-5" d="M192,608.61h0a1.87,1.87,0,0,0-1.86,1.86v7.65A1.87,1.87,0,0,0,192,620h0a1.87,1.87,0,0,0,1.86-1.86v-7.65A1.87,1.87,0,0,0,192,608.61Z"/>
          <path class="cls-5" d="M173.52,605.35h0a1.87,1.87,0,0,0-2.38,1.11l-2.62,7.19a1.87,1.87,0,0,0,1.11,2.38h0a1.87,1.87,0,0,0,2.38-1.11l2.62-7.19A1.87,1.87,0,0,0,173.52,605.35Z"/>
          <path class="cls-5" d="M157.28,596h0a1.87,1.87,0,0,0-2.62.23l-4.92,5.86a1.87,1.87,0,0,0,.23,2.62h0a1.87,1.87,0,0,0,2.62-.23l4.92-5.86A1.87,1.87,0,0,0,157.28,596Z"/>
          <path class="cls-5" d="M145.23,581.62h0a1.87,1.87,0,0,0-2.54-.68l-6.62,3.82a1.87,1.87,0,0,0-.68,2.54h0a1.87,1.87,0,0,0,2.54.68l6.62-3.82A1.87,1.87,0,0,0,145.23,581.62Z"/>
          <path class="cls-5" d="M138.82,564h0a1.87,1.87,0,0,0-2.16-1.51l-7.53,1.33a1.87,1.87,0,0,0-1.51,2.16h0a1.87,1.87,0,0,0,2.16,1.51l7.53-1.33A1.87,1.87,0,0,0,138.82,564Z"/>
          <path class="cls-5" d="M138.82,545.26h0a1.87,1.87,0,0,0-1.51-2.16l-7.53-1.33a1.87,1.87,0,0,0-2.16,1.51h0a1.87,1.87,0,0,0,1.51,2.16l7.53,1.33A1.87,1.87,0,0,0,138.82,545.26Z"/>
          <path class="cls-5" d="M145.23,527.65h0a1.87,1.87,0,0,0-.68-2.54l-6.62-3.82a1.87,1.87,0,0,0-2.54.68h0a1.87,1.87,0,0,0,.68,2.54l6.62,3.82A1.87,1.87,0,0,0,145.23,527.65Z"/>
          <path class="cls-5" d="M157.28,513.29h0a1.87,1.87,0,0,0,.23-2.62l-4.92-5.86a1.87,1.87,0,0,0-2.62-.23h0a1.87,1.87,0,0,0-.23,2.62l4.92,5.86A1.87,1.87,0,0,0,157.28,513.29Z"/>
          <path class="cls-5" d="M173.52,503.91h0a1.87,1.87,0,0,0,1.11-2.38L172,494.34a1.87,1.87,0,0,0-2.38-1.11h0a1.87,1.87,0,0,0-1.11,2.38l2.62,7.19A1.87,1.87,0,0,0,173.52,503.91Z"/>
        </g>
        <path class="cls-11" d="M160.67,589.4h0a2.35,2.35,0,0,0,3.31-.15l29.25-32.1a2.35,2.35,0,0,0-.15-3.31h0a2.35,2.35,0,0,0-3.31.15l-29.25,32.1A2.35,2.35,0,0,0,160.67,589.4Z"/>
        <rect class="cls-8" x="142.49" y="553.98" width="49.49" height="1.3" transform="translate(334.46 1109.27) rotate(180)"/>
        <circle class="cls-5" cx="191.98" cy="554.63" r="5.69"/>
        <rect class="cls-5" x="187.91" y="514.37" width="8.13" height="39.62" rx="3.7" ry="3.7" transform="translate(383.95 1068.36) rotate(180)"/>
      </g>
      <g>
        <rect class="cls-8" x="266.74" y="342.24" width="265.76" height="46.14" transform="translate(-22.36 704.55) rotate(-81.23)"/>
        <g>
          <rect class="cls-4" x="367.31" y="473.82" width="4.23" height="23.07" transform="translate(-166.59 776.46) rotate(-81.23)"/>
          <rect class="cls-4" x="404.9" y="230.22" width="4.23" height="23.07" transform="translate(106.02 607.14) rotate(-81.23)"/>
        </g>
        <g>
          <rect class="cls-4" x="365.81" y="471.13" width="1.3" height="15.19" transform="translate(-162.55 767.9) rotate(-81.23)"/>
          <rect class="cls-4" x="367.3" y="461.49" width="1.3" height="15.19" transform="translate(-151.73 761.23) rotate(-81.23)"/>
          <rect class="cls-4" x="368.79" y="451.84" width="1.3" height="15.19" transform="translate(-140.96 754.48) rotate(-81.23)"/>
          <rect class="cls-4" x="370.28" y="442.19" width="1.3" height="15.19" transform="translate(-130.17 747.78) rotate(-81.23)"/>
          <rect class="cls-4" x="371.77" y="432.54" width="1.3" height="15.19" transform="translate(-119.37 741.08) rotate(-81.23)"/>
          <rect class="cls-4" x="373.25" y="422.9" width="1.3" height="15.19" transform="translate(-108.57 734.37) rotate(-81.23)"/>
          <rect class="cls-4" x="374.74" y="413.25" width="1.3" height="15.19" transform="translate(-97.78 727.66) rotate(-81.23)"/>
          <rect class="cls-4" x="376.23" y="403.6" width="1.3" height="15.19" transform="translate(-86.98 720.96) rotate(-81.23)"/>
          <rect class="cls-4" x="377.72" y="393.95" width="1.3" height="15.19" transform="translate(-76.16 714.28) rotate(-81.23)"/>
          <rect class="cls-4" x="379.21" y="384.3" width="1.3" height="15.19" transform="translate(-65.38 707.55) rotate(-81.23)"/>
          <rect class="cls-4" x="380.7" y="374.66" width="1.3" height="15.19" transform="matrix(0.15, -0.99, 0.99, 0.15, -54.59, 700.85)"/>
          <rect class="cls-4" x="382.19" y="365.01" width="1.3" height="15.19" transform="translate(-43.79 694.14) rotate(-81.23)"/>
          <rect class="cls-4" x="383.68" y="355.36" width="1.3" height="15.19" transform="translate(-33 687.43) rotate(-81.23)"/>
          <rect class="cls-4" x="385.16" y="345.71" width="1.3" height="15.19" transform="translate(-22.2 680.73) rotate(-81.23)"/>
          <rect class="cls-4" x="386.65" y="336.07" width="1.3" height="15.19" transform="translate(-11.4 674.02) rotate(-81.23)"/>
          <rect class="cls-4" x="388.14" y="326.42" width="1.3" height="15.19" transform="translate(-0.61 667.31) rotate(-81.23)"/>
          <rect class="cls-4" x="389.63" y="316.77" width="1.3" height="15.19" transform="translate(10.19 660.61) rotate(-81.23)"/>
          <rect class="cls-4" x="391.12" y="307.12" width="1.3" height="15.19" transform="translate(21.01 653.93) rotate(-81.23)"/>
          <rect class="cls-4" x="392.61" y="297.47" width="1.3" height="15.19" transform="translate(31.78 647.2) rotate(-81.23)"/>
          <rect class="cls-4" x="394.1" y="287.83" width="1.3" height="15.19" transform="translate(42.58 640.5) rotate(-81.23)"/>
          <rect class="cls-4" x="395.58" y="278.18" width="1.3" height="15.19" transform="translate(53.38 633.79) rotate(-81.23)"/>
          <rect class="cls-4" x="397.07" y="268.53" width="1.3" height="15.19" transform="translate(64.17 627.09) rotate(-81.23)"/>
          <rect class="cls-4" x="398.56" y="258.88" width="1.3" height="15.19" transform="translate(74.97 620.38) rotate(-81.23)"/>
          <rect class="cls-4" x="400.05" y="249.24" width="1.3" height="15.19" transform="translate(85.77 613.68) rotate(-81.23)"/>
          <rect class="cls-4" x="401.54" y="239.59" width="1.3" height="15.19" transform="translate(96.59 606.99) rotate(-81.23)"/>
        </g>
      </g>
      <g>
        <rect class="cls-10" x="225.41" y="382.37" width="351.14" height="225.99" rx="14.56" ry="14.56"/>
        <path class="cls-5" d="M562,389.23a7.81,7.81,0,0,1,7.71,7.71V593.8a7.81,7.81,0,0,1-7.71,7.71H240a7.81,7.81,0,0,1-7.71-7.71V396.94a7.81,7.81,0,0,1,7.71-7.71H562m0-13.71H240a21.48,21.48,0,0,0-21.42,21.42V593.8A21.48,21.48,0,0,0,240,615.22H562A21.48,21.48,0,0,0,583.4,593.8V396.94A21.48,21.48,0,0,0,562,375.52Z"/>
        <rect class="cls-4" x="260.89" y="415.26" width="280.16" height="160.21" rx="4.05" ry="4.05"/>
        <path class="cls-8" d="M260.89,564.27c1.75-3,40.31-57.83,40.31-57.83l23.13,15.42,31.27-18,16.28,15.85L438.71,452l38.13,56.12,16.71-12.78,20.56,22.2,26.95-15v68.84s-.43,4.05-4.05,4.05H264.95s-4.05-.32-4.05-4.05Z"/>
        <path class="cls-17" d="M260.89,568.84c1.89-.57,46.16-29.13,46.45-28.27s18.28,15.12,19.42,14.13,33.41-31.26,33.7-30.12,15.42,16.85,15.42,16.85l39.41-25.13s38,14.85,38.55,16.28,5.14,10,5.43,10,30.84-26.27,30.84-26.27L507.25,544l33.8-27.7v55.14s-.58,4.05-4.05,4.05H264.95s-4.05,0-4.05-4.05Z"/>
        <g>
          <path class="cls-10" d="M625.53,636.81v-7c0-8-6.13-14.57-13.62-14.57H190c-7.49,0-13.62,6.55-13.62,14.57v7Z"/>
          <rect class="cls-9" x="176.42" y="629.79" width="449.1" height="7.02"/>
          <rect class="cls-5" x="275.23" y="623.07" width="251.48" height="6.72"/>
        </g>
      </g>
    </g>
  </g>
</svg>
